hw/npu64v1cpy/vcd/fsm.vcd
$date
	Fri Jan 31 19:58:42 2020
$end
$version
	ModelSim Version 6.5c
$end
$timescale
	1ns
$end
$scope module test $end
$scope module fsm_inst $end
$var wire 1 ! ck $end
$var wire 1 " rst $end
$var wire 1 # start $end
$var wire 1 $ s_tc_npu_ptr $end
$var wire 1 % s_tc_hmode $end
$var wire 1 & s_tc_vmode $end
$var wire 1 ' s_tc_res $end
$var wire 1 ( s_tc_tilev $end
$var wire 1 ) s_tc_tileh $end
$var wire 1 * s_tc_ifmaps $end
$var wire 1 + s_tc_ofmaps $end
$var wire 1 , ctrl_en_npu $end
$var wire 1 - ctrl_en_hmode $end
$var wire 1 . ctrl_en_vmode $end
$var wire 1 / ctrl_ldh_v_n $end
$var wire 1 0 ctrl_wr_pipe $end
$var wire 1 1 ctrl_en_p $end
$var wire 1 2 ctrl_wr_mem $end
$var wire 1 3 done $end
$var wire 1 4 ns_0_ $end
$var wire 1 5 n1 $end
$var wire 1 6 n2 $end
$var wire 1 7 n3 $end
$var wire 1 8 n4 $end
$var wire 1 9 n6 $end
$var wire 1 : n8 $end
$var wire 1 ; n9 $end
$var wire 1 < n10 $end
$var wire 1 = n11 $end
$var wire 1 > n12 $end
$var wire 1 ? n13 $end
$var wire 1 @ n14 $end
$var wire 1 A n15 $end
$var wire 1 B n16 $end
$var wire 1 C n17 $end
$var wire 1 D n18 $end
$var wire 1 E n19 $end
$var wire 1 F n20 $end
$var wire 1 G n21 $end
$var wire 1 H n22 $end
$var wire 1 I n23 $end
$var wire 1 J n24 $end
$var wire 1 K n25 $end
$var wire 1 L n26 $end
$var wire 1 M n27 $end
$var wire 1 N ps [2] $end
$var wire 1 O ps [1] $end
$var wire 1 P ps [0] $end
$upscope $end
$upscope $end
$enddefinitions $end
#0
$dumpvars
0$
0%
0&
0'
0(
0)
0*
0+
0,
0-
0.
0/
00
01
02
03
04
05
06
07
08
19
1:
1;
0<
1=
1>
1?
1@
0A
0B
1C
0D
1E
1F
1G
1H
0I
1J
1K
1L
1M
0P
0O
0N
0!
1"
0#
$end
#2
1!
0"
15
#4
0!
#6
1!
1#
1B
0F
0?
1D
17
0C
16
#8
0!
#10
1!
0#
09
1N
0:
1O
0B
1F
0K
0D
1?
1A
1C
07
1,
1/
0?
0C
06
17
16
#12
0!
#14
1!
#16
0!
#18
1!
#20
0!
#22
1!
#24
0!
#26
1!
#28
0!
#30
1!
1*
0>
#32
0!
#34
1!
0*
1>
#36
0!
#38
1!
#40
0!
#42
1!
#44
0!
#46
1!
#48
0!
#50
1!
#52
0!
#54
1!
1*
0>
#56
0!
#58
1!
0*
1>
#60
0!
#62
1!
#64
0!
#66
1!
#68
0!
#70
1!
#72
0!
#74
1!
#76
0!
#78
1!
1*
0>
#80
0!
#82
1!
0*
1>
#84
0!
#86
1!
#88
0!
#90
1!
#92
0!
#94
1!
#96
0!
#98
1!
#100
0!
#102
1!
1*
0>
#104
0!
#106
1!
0*
1>
#108
0!
#110
1!
#112
0!
#114
1!
#116
0!
#118
1!
#120
0!
#122
1!
#124
0!
#126
1!
1*
0>
#128
0!
#130
1!
0*
1>
#132
0!
#134
1!
#136
0!
#138
1!
#140
0!
#142
1!
#144
0!
#146
1!
#148
0!
#150
1!
1*
0>
#152
0!
#154
1!
0*
1>
#156
0!
#158
1!
#160
0!
#162
1!
#164
0!
#166
1!
#168
0!
#170
1!
#172
0!
#174
1!
1*
0>
#176
0!
#178
1!
0*
1$
1>
#180
0!
#182
1!
#184
0!
#186
1!
#188
0!
#190
1!
#192
0!
#194
1!
#196
0!
#198
1!
1*
0>
0@
1?
1C
1<
07
06
0J
14
#200
0!
#202
1!
0*
0$
19
0N
1:
0O
0;
1P
1>
1@
0A
1K
0E
0?
0C
0<
1.
1?
1J
17
16
1-
0/
0.
07
1C
06
#204
0!
#206
1!
#208
0!
#210
1!
#212
0!
#214
1!
#216
0!
#218
1!
#220
0!
#222
1!
1*
0>
#224
0!
#226
1!
0*
1>
#228
0!
#230
1!
#232
0!
#234
1!
#236
0!
#238
1!
#240
0!
#242
1!
#244
0!
#246
1!
1*
0>
#248
0!
#250
1!
0*
1>
#252
0!
#254
1!
#256
0!
#258
1!
#260
0!
#262
1!
#264
0!
#266
1!
#268
0!
#270
1!
1*
0>
#272
0!
#274
1!
0*
1>
#276
0!
#278
1!
#280
0!
#282
1!
#284
0!
#286
1!
#288
0!
#290
1!
#292
0!
#294
1!
1*
0>
#296
0!
#298
1!
1%
0*
0=
1>
#300
0!
#302
1!
#304
0!
#306
1!
#308
0!
#310
1!
#312
0!
#314
1!
#316
0!
#318
1!
1*
0>
1I
1D
04
0C
16
#320
0!
#322
1!
0%
0*
1;
0P
0:
1O
1=
1>
1E
0K
0I
0D
1C
1/
1.
0-
06
0C
16
#324
0!
#326
1!
#328
0!
#330
1!
#332
0!
#334
1!
#336
0!
#338
1!
#340
0!
#342
1!
1*
0>
0J
1C
14
06
#344
0!
#346
1!
0*
0;
1P
1:
0O
1>
1J
1K
0E
0C
04
14
16
1-
0/
0.
1C
06
#348
0!
#350
1!
#352
0!
#354
1!
#356
0!
#358
1!
#360
0!
#362
1!
#364
0!
#366
1!
1*
0>
#368
0!
#370
1!
0*
1>
#372
0!
#374
1!
#376
0!
#378
1!
#380
0!
#382
1!
#384
0!
#386
1!
#388
0!
#390
1!
1*
0>
#392
0!
#394
1!
0*
1>
#396
0!
#398
1!
#400
0!
#402
1!
#404
0!
#406
1!
#408
0!
#410
1!
#412
0!
#414
1!
1*
0>
#416
0!
#418
1!
0*
1>
#420
0!
#422
1!
#424
0!
#426
1!
#428
0!
#430
1!
#432
0!
#434
1!
#436
0!
#438
1!
1*
0>
#440
0!
#442
1!
1%
0*
0=
1>
#444
0!
#446
1!
#448
0!
#450
1!
#452
0!
#454
1!
#456
0!
#458
1!
#460
0!
#462
1!
1*
0>
1I
1D
04
0C
16
#464
0!
#466
1!
0%
0*
1;
0P
0:
1O
1=
1>
1E
0K
0I
0D
1C
1/
1.
0-
06
0C
16
#468
0!
#470
1!
#472
0!
#474
1!
#476
0!
#478
1!
#480
0!
#482
1!
#484
0!
#486
1!
1*
0>
0J
1C
14
06
#488
0!
#490
1!
0*
0;
1P
1:
0O
1>
1J
1K
0E
0C
04
14
16
1-
0/
0.
1C
06
#492
0!
#494
1!
#496
0!
#498
1!
#500
0!
#502
1!
#504
0!
#506
1!
#508
0!
#510
1!
1*
0>
#512
0!
#514
1!
0*
1>
#516
0!
#518
1!
#520
0!
#522
1!
#524
0!
#526
1!
#528
0!
#530
1!
#532
0!
#534
1!
1*
0>
#536
0!
#538
1!
0*
1>
#540
0!
#542
1!
#544
0!
#546
1!
#548
0!
#550
1!
#552
0!
#554
1!
#556
0!
#558
1!
1*
0>
#560
0!
#562
1!
0*
1>
#564
0!
#566
1!
#568
0!
#570
1!
#572
0!
#574
1!
#576
0!
#578
1!
#580
0!
#582
1!
1*
0>
#584
0!
#586
1!
1%
0*
0=
1>
#588
0!
#590
1!
#592
0!
#594
1!
#596
0!
#598
1!
#600
0!
#602
1!
#604
0!
#606
1!
1*
0>
1I
1D
04
0C
16
#608
0!
#610
1!
0%
0*
1;
0P
0:
1O
1=
1>
1E
0K
0I
0D
1C
1/
1.
0-
06
0C
16
#612
0!
#614
1!
#616
0!
#618
1!
#620
0!
#622
1!
#624
0!
#626
1!
#628
0!
#630
1!
1*
0>
0J
1C
14
06
#632
0!
#634
1!
0*
0;
1P
1:
0O
1>
1J
1K
0E
0C
04
14
16
1-
0/
0.
1C
06
#636
0!
#638
1!
#640
0!
#642
1!
#644
0!
#646
1!
#648
0!
#650
1!
#652
0!
#654
1!
1*
0>
#656
0!
#658
1!
0*
1>
#660
0!
#662
1!
#664
0!
#666
1!
#668
0!
#670
1!
#672
0!
#674
1!
#676
0!
#678
1!
1*
0>
#680
0!
#682
1!
0*
1>
#684
0!
#686
1!
#688
0!
#690
1!
#692
0!
#694
1!
#696
0!
#698
1!
#700
0!
#702
1!
1*
0>
#704
0!
#706
1!
0*
1>
#708
0!
#710
1!
#712
0!
#714
1!
#716
0!
#718
1!
#720
0!
#722
1!
#724
0!
#726
1!
1*
0>
#728
0!
#730
1!
1%
0*
0=
1>
#732
0!
#734
1!
#736
0!
#738
1!
#740
0!
#742
1!
#744
0!
#746
1!
#748
0!
#750
1!
1*
0>
1I
1D
04
0C
16
#752
0!
#754
1!
0%
0*
1;
0P
0:
1O
1=
1>
1E
0K
0I
0D
1C
1/
1.
0-
06
0C
16
#756
0!
#758
1!
#760
0!
#762
1!
#764
0!
#766
1!
#768
0!
#770
1!
#772
0!
#774
1!
1*
0>
0J
1C
14
06
#776
0!
#778
1!
1&
0*
0;
1P
1:
0O
1>
1J
1K
0E
0C
04
14
16
1-
0/
0.
1C
06
#780
0!
#782
1!
#784
0!
#786
1!
#788
0!
#790
1!
#792
0!
#794
1!
#796
0!
#798
1!
1*
0>
#800
0!
#802
1!
0*
1>
#804
0!
#806
1!
#808
0!
#810
1!
#812
0!
#814
1!
#816
0!
#818
1!
#820
0!
#822
1!
1*
0>
#824
0!
#826
1!
0*
1>
#828
0!
#830
1!
#832
0!
#834
1!
#836
0!
#838
1!
#840
0!
#842
1!
#844
0!
#846
1!
1*
0>
#848
0!
#850
1!
0*
1>
#852
0!
#854
1!
#856
0!
#858
1!
#860
0!
#862
1!
#864
0!
#866
1!
#868
0!
#870
1!
1*
0>
#872
0!
#874
1!
1%
0*
0=
1>
#876
0!
#878
1!
#880
0!
#882
1!
#884
0!
#886
1!
#888
0!
#890
1!
#892
0!
#894
1!
1*
0>
1D
0C
16
#896
0!
#898
1!
0%
0*
0:
1O
1=
1>
1E
0M
0D
04
1C
11
0,
0-
10
06
0?
17
#900
0!
#902
1!
1:
0O
1;
0P
09
1N
1M
0L
18
#904
0!
#906
1!
#908
0!
#910
1!
#912
0!
#914
1!
#916
0!
#918
1!
#920
0!
#922
1!
#924
0!
#926
1!
1'
0F
0G
1D
0C
16
#928
0!
#930
1!
1(
0&
0'
0:
1O
1F
1G
1L
0K
0D
08
1A
1C
1,
1/
01
00
0C
06
16
#932
0!
#934
1!
#936
0!
#938
1!
#940
0!
#942
1!
#944
0!
#946
1!
#948
0!
#950
1!
1*
0>
#952
0!
#954
1!
0*
1>
#956
0!
#958
1!
#960
0!
#962
1!
#964
0!
#966
1!
#968
0!
#970
1!
#972
0!
#974
1!
1*
0>
#976
0!
#978
1!
0*
1>
#980
0!
#982
1!
#984
0!
#986
1!
#988
0!
#990
1!
#992
0!
#994
1!
#996
0!
#998
1!
1*
0>
#1000
0!
#1002
1!
0*
1$
1>
#1004
0!
#1006
1!
#1008
0!
#1010
1!
#1012
0!
#1014
1!
#1016
0!
#1018
1!
#1020
0!
#1022
1!
1*
0>
0@
1?
1C
1<
07
06
0J
14
#1024
0!
#1026
1!
0*
0$
19
0N
1:
0O
0;
1P
1>
1@
0A
1K
0E
0?
0C
0<
1.
1?
1J
17
16
1-
0/
0.
07
1C
06
#1028
0!
#1030
1!
#1032
0!
#1034
1!
#1036
0!
#1038
1!
#1040
0!
#1042
1!
#1044
0!
#1046
1!
1*
0>
#1048
0!
#1050
1!
0*
1>
#1052
0!
#1054
1!
#1056
0!
#1058
1!
#1060
0!
#1062
1!
#1064
0!
#1066
1!
#1068
0!
#1070
1!
1*
0>
#1072
0!
#1074
1!
0*
1>
#1076
0!
#1078
1!
#1080
0!
#1082
1!
#1084
0!
#1086
1!
#1088
0!
#1090
1!
#1092
0!
#1094
1!
1*
0>
#1096
0!
#1098
1!
0*
1>
#1100
0!
#1102
1!
#1104
0!
#1106
1!
#1108
0!
#1110
1!
#1112
0!
#1114
1!
#1116
0!
#1118
1!
1*
0>
#1120
0!
#1122
1!
1%
0*
0=
1>
#1124
0!
#1126
1!
#1128
0!
#1130
1!
#1132
0!
#1134
1!
#1136
0!
#1138
1!
#1140
0!
#1142
1!
1*
0>
1I
1D
04
0C
16
#1144
0!
#1146
1!
0%
0*
1;
0P
0:
1O
1=
1>
1E
0K
0I
0D
1C
1/
1.
0-
06
0C
16
#1148
0!
#1150
1!
#1152
0!
#1154
1!
#1156
0!
#1158
1!
#1160
0!
#1162
1!
#1164
0!
#1166
1!
1*
0>
0J
1C
14
06
#1168
0!
#1170
1!
0*
0;
1P
1:
0O
1>
1J
1K
0E
0C
04
14
16
1-
0/
0.
1C
06
#1172
0!
#1174
1!
#1176
0!
#1178
1!
#1180
0!
#1182
1!
#1184
0!
#1186
1!
#1188
0!
#1190
1!
1*
0>
#1192
0!
#1194
1!
0*
1>
#1196
0!
#1198
1!
#1200
0!
#1202
1!
#1204
0!
#1206
1!
#1208
0!
#1210
1!
#1212
0!
#1214
1!
1*
0>
#1216
0!
#1218
1!
0*
1>
#1220
0!
#1222
1!
#1224
0!
#1226
1!
#1228
0!
#1230
1!
#1232
0!
#1234
1!
#1236
0!
#1238
1!
1*
0>
#1240
0!
#1242
1!
0*
1>
#1244
0!
#1246
1!
#1248
0!
#1250
1!
#1252
0!
#1254
1!
#1256
0!
#1258
1!
#1260
0!
#1262
1!
1*
0>
#1264
0!
#1266
1!
1%
0*
0=
1>
#1268
0!
#1270
1!
#1272
0!
#1274
1!
#1276
0!
#1278
1!
#1280
0!
#1282
1!
#1284
0!
#1286
1!
1*
0>
1I
1D
04
0C
16
#1288
0!
#1290
1!
0%
0*
1;
0P
0:
1O
1=
1>
1E
0K
0I
0D
1C
1/
1.
0-
06
0C
16
#1292
0!
#1294
1!
#1296
0!
#1298
1!
#1300
0!
#1302
1!
#1304
0!
#1306
1!
#1308
0!
#1310
1!
1*
0>
0J
1C
14
06
#1312
0!
#1314
1!
0*
0;
1P
1:
0O
1>
1J
1K
0E
0C
04
14
16
1-
0/
0.
1C
06
#1316
0!
#1318
1!
#1320
0!
#1322
1!
#1324
0!
#1326
1!
#1328
0!
#1330
1!
#1332
0!
#1334
1!
1*
0>
#1336
0!
#1338
1!
0*
1>
#1340
0!
#1342
1!
#1344
0!
#1346
1!
#1348
0!
#1350
1!
#1352
0!
#1354
1!
#1356
0!
#1358
1!
1*
0>
#1360
0!
#1362
1!
0*
1>
#1364
0!
#1366
1!
#1368
0!
#1370
1!
#1372
0!
#1374
1!
#1376
0!
#1378
1!
#1380
0!
#1382
1!
1*
0>
#1384
0!
#1386
1!
0*
1>
#1388
0!
#1390
1!
#1392
0!
#1394
1!
#1396
0!
#1398
1!
#1400
0!
#1402
1!
#1404
0!
#1406
1!
1*
0>
#1408
0!
#1410
1!
1%
0*
0=
1>
#1412
0!
#1414
1!
#1416
0!
#1418
1!
#1420
0!
#1422
1!
#1424
0!
#1426
1!
#1428
0!
#1430
1!
1*
0>
1I
1D
04
0C
16
#1432
0!
#1434
1!
0%
0*
1;
0P
0:
1O
1=
1>
1E
0K
0I
0D
1C
1/
1.
0-
06
0C
16
#1436
0!
#1438
1!
#1440
0!
#1442
1!
#1444
0!
#1446
1!
#1448
0!
#1450
1!
#1452
0!
#1454
1!
1*
0>
0J
1C
14
06
#1456
0!
#1458
1!
0*
0;
1P
1:
0O
1>
1J
1K
0E
0C
04
14
16
1-
0/
0.
1C
06
#1460
0!
#1462
1!
#1464
0!
#1466
1!
#1468
0!
#1470
1!
#1472
0!
#1474
1!
#1476
0!
#1478
1!
1*
0>
#1480
0!
#1482
1!
0*
1>
#1484
0!
#1486
1!
#1488
0!
#1490
1!
#1492
0!
#1494
1!
#1496
0!
#1498
1!
#1500
0!
#1502
1!
1*
0>
#1504
0!
#1506
1!
0*
1>
#1508
0!
#1510
1!
#1512
0!
#1514
1!
#1516
0!
#1518
1!
#1520
0!
#1522
1!
#1524
0!
#1526
1!
1*
0>
#1528
0!
#1530
1!
0*
1>
#1532
0!
#1534
1!
#1536
0!
#1538
1!
#1540
0!
#1542
1!
#1544
0!
#1546
1!
#1548
0!
#1550
1!
1*
0>
#1552
0!
#1554
1!
1%
0*
0=
1>
#1556
0!
#1558
1!
#1560
0!
#1562
1!
#1564
0!
#1566
1!
#1568
0!
#1570
1!
#1572
0!
#1574
1!
1*
0>
1I
1D
04
0C
16
#1576
0!
#1578
1!
0%
0*
1;
0P
0:
1O
1=
1>
1E
0K
0I
0D
1C
1/
1.
0-
06
0C
16
#1580
0!
#1582
1!
#1584
0!
#1586
1!
#1588
0!
#1590
1!
#1592
0!
#1594
1!
#1596
0!
#1598
1!
1*
0>
0J
1C
14
06
#1600
0!
#1602
1!
1&
0*
0;
1P
1:
0O
1>
1J
1K
0E
0C
04
14
16
1-
0/
0.
1C
06
#1604
0!
#1606
1!
#1608
0!
#1610
1!
#1612
0!
#1614
1!
#1616
0!
#1618
1!
#1620
0!
#1622
1!
1*
0>
#1624
0!
#1626
1!
0*
1>
#1628
0!
#1630
1!
#1632
0!
#1634
1!
#1636
0!
#1638
1!
#1640
0!
#1642
1!
#1644
0!
#1646
1!
1*
0>
#1648
0!
#1650
1!
0*
1>
#1652
0!
#1654
1!
#1656
0!
#1658
1!
#1660
0!
#1662
1!
#1664
0!
#1666
1!
#1668
0!
#1670
1!
1*
0>
#1672
0!
#1674
1!
0*
1>
#1676
0!
#1678
1!
#1680
0!
#1682
1!
#1684
0!
#1686
1!
#1688
0!
#1690
1!
#1692
0!
#1694
1!
1*
0>
#1696
0!
#1698
1!
1%
0*
0=
1>
#1700
0!
#1702
1!
#1704
0!
#1706
1!
#1708
0!
#1710
1!
#1712
0!
#1714
1!
#1716
0!
#1718
1!
1*
0>
1D
0C
16
#1720
0!
#1722
1!
0%
0*
0:
1O
1=
1>
1E
0M
0D
04
1C
11
0,
0-
10
06
0?
17
#1724
0!
#1726
1!
1'
1:
0O
1;
0P
09
1N
1M
0F
0L
1D
18
0C
0G
16
#1728
0!
#1730
1!
1)
0(
0&
0'
0:
1O
1F
1G
1L
0K
0D
08
1A
1C
1,
1/
01
00
0C
06
16
#1732
0!
#1734
1!
#1736
0!
#1738
1!
#1740
0!
#1742
1!
#1744
0!
#1746
1!
#1748
0!
#1750
1!
1*
0>
#1752
0!
#1754
1!
0*
1>
#1756
0!
#1758
1!
#1760
0!
#1762
1!
#1764
0!
#1766
1!
#1768
0!
#1770
1!
#1772
0!
#1774
1!
1*
0>
#1776
0!
#1778
1!
0*
1>
#1780
0!
#1782
1!
#1784
0!
#1786
1!
#1788
0!
#1790
1!
#1792
0!
#1794
1!
#1796
0!
#1798
1!
1*
0>
#1800
0!
#1802
1!
0*
1$
1>
#1804
0!
#1806
1!
#1808
0!
#1810
1!
#1812
0!
#1814
1!
#1816
0!
#1818
1!
#1820
0!
#1822
1!
1*
0>
0@
1?
1C
1<
07
06
0J
14
#1824
0!
#1826
1!
0*
0$
19
0N
1:
0O
0;
1P
1>
1@
0A
1K
0E
0?
0C
0<
1.
1?
1J
17
16
1-
0/
0.
07
1C
06
#1828
0!
#1830
1!
#1832
0!
#1834
1!
#1836
0!
#1838
1!
#1840
0!
#1842
1!
#1844
0!
#1846
1!
1*
0>
#1848
0!
#1850
1!
0*
1>
#1852
0!
#1854
1!
#1856
0!
#1858
1!
#1860
0!
#1862
1!
#1864
0!
#1866
1!
#1868
0!
#1870
1!
1*
0>
#1872
0!
#1874
1!
0*
1>
#1876
0!
#1878
1!
#1880
0!
#1882
1!
#1884
0!
#1886
1!
#1888
0!
#1890
1!
#1892
0!
#1894
1!
1*
0>
#1896
0!
#1898
1!
0*
1>
#1900
0!
#1902
1!
#1904
0!
#1906
1!
#1908
0!
#1910
1!
#1912
0!
#1914
1!
#1916
0!
#1918
1!
1*
0>
#1920
0!
#1922
1!
1%
0*
0=
1>
#1924
0!
#1926
1!
#1928
0!
#1930
1!
#1932
0!
#1934
1!
#1936
0!
#1938
1!
#1940
0!
#1942
1!
1*
0>
1I
1D
04
0C
16
#1944
0!
#1946
1!
0%
0*
1;
0P
0:
1O
1=
1>
1E
0K
0I
0D
1C
1/
1.
0-
06
0C
16
#1948
0!
#1950
1!
#1952
0!
#1954
1!
#1956
0!
#1958
1!
#1960
0!
#1962
1!
#1964
0!
#1966
1!
1*
0>
0J
1C
14
06
#1968
0!
#1970
1!
0*
0;
1P
1:
0O
1>
1J
1K
0E
0C
04
14
16
1-
0/
0.
1C
06
#1972
0!
#1974
1!
#1976
0!
#1978
1!
#1980
0!
#1982
1!
#1984
0!
#1986
1!
#1988
0!
#1990
1!
1*
0>
#1992
0!
#1994
1!
0*
1>
#1996
0!
#1998
1!
#2000
0!
#2002
1!
#2004
0!
#2006
1!
#2008
0!
#2010
1!
#2012
0!
#2014
1!
1*
0>
#2016
0!
#2018
1!
0*
1>
#2020
0!
#2022
1!
#2024
0!
#2026
1!
#2028
0!
#2030
1!
#2032
0!
#2034
1!
#2036
0!
#2038
1!
1*
0>
#2040
0!
#2042
1!
0*
1>
#2044
0!
#2046
1!
#2048
0!
#2050
1!
#2052
0!
#2054
1!
#2056
0!
#2058
1!
#2060
0!
#2062
1!
1*
0>
#2064
0!
#2066
1!
1%
0*
0=
1>
#2068
0!
#2070
1!
#2072
0!
#2074
1!
#2076
0!
#2078
1!
#2080
0!
#2082
1!
#2084
0!
#2086
1!
1*
0>
1I
1D
04
0C
16
#2088
0!
#2090
1!
0%
0*
1;
0P
0:
1O
1=
1>
1E
0K
0I
0D
1C
1/
1.
0-
06
0C
16
#2092
0!
#2094
1!
#2096
0!
#2098
1!
#2100
0!
#2102
1!
#2104
0!
#2106
1!
#2108
0!
#2110
1!
1*
0>
0J
1C
14
06
#2112
0!
#2114
1!
0*
0;
1P
1:
0O
1>
1J
1K
0E
0C
04
14
16
1-
0/
0.
1C
06
#2116
0!
#2118
1!
#2120
0!
#2122
1!
#2124
0!
#2126
1!
#2128
0!
#2130
1!
#2132
0!
#2134
1!
1*
0>
#2136
0!
#2138
1!
0*
1>
#2140
0!
#2142
1!
#2144
0!
#2146
1!
#2148
0!
#2150
1!
#2152
0!
#2154
1!
#2156
0!
#2158
1!
1*
0>
#2160
0!
#2162
1!
0*
1>
#2164
0!
#2166
1!
#2168
0!
#2170
1!
#2172
0!
#2174
1!
#2176
0!
#2178
1!
#2180
0!
#2182
1!
1*
0>
#2184
0!
#2186
1!
0*
1>
#2188
0!
#2190
1!
#2192
0!
#2194
1!
#2196
0!
#2198
1!
#2200
0!
#2202
1!
#2204
0!
#2206
1!
1*
0>
#2208
0!
#2210
1!
1%
0*
0=
1>
#2212
0!
#2214
1!
#2216
0!
#2218
1!
#2220
0!
#2222
1!
#2224
0!
#2226
1!
#2228
0!
#2230
1!
1*
0>
1I
1D
04
0C
16
#2232
0!
#2234
1!
0%
0*
1;
0P
0:
1O
1=
1>
1E
0K
0I
0D
1C
1/
1.
0-
06
0C
16
#2236
0!
#2238
1!
#2240
0!
#2242
1!
#2244
0!
#2246
1!
#2248
0!
#2250
1!
#2252
0!
#2254
1!
1*
0>
0J
1C
14
06
#2256
0!
#2258
1!
0*
0;
1P
1:
0O
1>
1J
1K
0E
0C
04
14
16
1-
0/
0.
1C
06
#2260
0!
#2262
1!
#2264
0!
#2266
1!
#2268
0!
#2270
1!
#2272
0!
#2274
1!
#2276
0!
#2278
1!
1*
0>
#2280
0!
#2282
1!
0*
1>
#2284
0!
#2286
1!
#2288
0!
#2290
1!
#2292
0!
#2294
1!
#2296
0!
#2298
1!
#2300
0!
#2302
1!
1*
0>
#2304
0!
#2306
1!
0*
1>
#2308
0!
#2310
1!
#2312
0!
#2314
1!
#2316
0!
#2318
1!
#2320
0!
#2322
1!
#2324
0!
#2326
1!
1*
0>
#2328
0!
#2330
1!
0*
1>
#2332
0!
#2334
1!
#2336
0!
#2338
1!
#2340
0!
#2342
1!
#2344
0!
#2346
1!
#2348
0!
#2350
1!
1*
0>
#2352
0!
#2354
1!
1%
0*
0=
1>
#2356
0!
#2358
1!
#2360
0!
#2362
1!
#2364
0!
#2366
1!
#2368
0!
#2370
1!
#2372
0!
#2374
1!
1*
0>
1I
1D
04
0C
16
#2376
0!
#2378
1!
0%
0*
1;
0P
0:
1O
1=
1>
1E
0K
0I
0D
1C
1/
1.
0-
06
0C
16
#2380
0!
#2382
1!
#2384
0!
#2386
1!
#2388
0!
#2390
1!
#2392
0!
#2394
1!
#2396
0!
#2398
1!
1*
0>
0J
1C
14
06
#2400
0!
#2402
1!
1&
0*
0;
1P
1:
0O
1>
1J
1K
0E
0C
04
14
16
1-
0/
0.
1C
06
#2404
0!
#2406
1!
#2408
0!
#2410
1!
#2412
0!
#2414
1!
#2416
0!
#2418
1!
#2420
0!
#2422
1!
1*
0>
#2424
0!
#2426
1!
0*
1>
#2428
0!
#2430
1!
#2432
0!
#2434
1!
#2436
0!
#2438
1!
#2440
0!
#2442
1!
#2444
0!
#2446
1!
1*
0>
#2448
0!
#2450
1!
0*
1>
#2452
0!
#2454
1!
#2456
0!
#2458
1!
#2460
0!
#2462
1!
#2464
0!
#2466
1!
#2468
0!
#2470
1!
1*
0>
#2472
0!
#2474
1!
0*
1>
#2476
0!
#2478
1!
#2480
0!
#2482
1!
#2484
0!
#2486
1!
#2488
0!
#2490
1!
#2492
0!
#2494
1!
1*
0>
#2496
0!
#2498
1!
1%
0*
0=
1>
#2500
0!
#2502
1!
#2504
0!
#2506
1!
#2508
0!
#2510
1!
#2512
0!
#2514
1!
#2516
0!
#2518
1!
1*
0>
1D
0C
16
#2520
0!
#2522
1!
0%
0*
0:
1O
1=
1>
1E
0M
0D
04
1C
11
0,
0-
10
06
0?
17
#2524
0!
#2526
1!
1:
0O
1;
0P
09
1N
1M
0L
18
#2528
0!
#2530
1!
#2532
0!
#2534
1!
#2536
0!
#2538
1!
#2540
0!
#2542
1!
#2544
0!
#2546
1!
#2548
0!
#2550
1!
1'
0F
0G
1D
0C
16
#2552
0!
#2554
1!
1(
0&
0'
0:
1O
1F
1G
1L
0K
0D
08
1A
1C
1,
1/
01
00
0C
06
16
#2556
0!
#2558
1!
#2560
0!
#2562
1!
#2564
0!
#2566
1!
#2568
0!
#2570
1!
#2572
0!
#2574
1!
1*
0>
#2576
0!
#2578
1!
0*
1>
#2580
0!
#2582
1!
#2584
0!
#2586
1!
#2588
0!
#2590
1!
#2592
0!
#2594
1!
#2596
0!
#2598
1!
1*
0>
#2600
0!
#2602
1!
0*
1>
#2604
0!
#2606
1!
#2608
0!
#2610
1!
#2612
0!
#2614
1!
#2616
0!
#2618
1!
#2620
0!
#2622
1!
1*
0>
#2624
0!
#2626
1!
0*
1$
1>
#2628
0!
#2630
1!
#2632
0!
#2634
1!
#2636
0!
#2638
1!
#2640
0!
#2642
1!
#2644
0!
#2646
1!
1*
0>
0@
1?
1C
1<
07
06
0J
14
#2648
0!
#2650
1!
0*
0$
19
0N
1:
0O
0;
1P
1>
1@
0A
1K
0E
0?
0C
0<
1.
1?
1J
17
16
1-
0/
0.
07
1C
06
#2652
0!
#2654
1!
#2656
0!
#2658
1!
#2660
0!
#2662
1!
#2664
0!
#2666
1!
#2668
0!
#2670
1!
1*
0>
#2672
0!
#2674
1!
0*
1>
#2676
0!
#2678
1!
#2680
0!
#2682
1!
#2684
0!
#2686
1!
#2688
0!
#2690
1!
#2692
0!
#2694
1!
1*
0>
#2696
0!
#2698
1!
0*
1>
#2700
0!
#2702
1!
#2704
0!
#2706
1!
#2708
0!
#2710
1!
#2712
0!
#2714
1!
#2716
0!
#2718
1!
1*
0>
#2720
0!
#2722
1!
0*
1>
#2724
0!
#2726
1!
#2728
0!
#2730
1!
#2732
0!
#2734
1!
#2736
0!
#2738
1!
#2740
0!
#2742
1!
1*
0>
#2744
0!
#2746
1!
1%
0*
0=
1>
#2748
0!
#2750
1!
#2752
0!
#2754
1!
#2756
0!
#2758
1!
#2760
0!
#2762
1!
#2764
0!
#2766
1!
1*
0>
1I
1D
04
0C
16
#2768
0!
#2770
1!
0%
0*
1;
0P
0:
1O
1=
1>
1E
0K
0I
0D
1C
1/
1.
0-
06
0C
16
#2772
0!
#2774
1!
#2776
0!
#2778
1!
#2780
0!
#2782
1!
#2784
0!
#2786
1!
#2788
0!
#2790
1!
1*
0>
0J
1C
14
06
#2792
0!
#2794
1!
0*
0;
1P
1:
0O
1>
1J
1K
0E
0C
04
14
16
1-
0/
0.
1C
06
#2796
0!
#2798
1!
#2800
0!
#2802
1!
#2804
0!
#2806
1!
#2808
0!
#2810
1!
#2812
0!
#2814
1!
1*
0>
#2816
0!
#2818
1!
0*
1>
#2820
0!
#2822
1!
#2824
0!
#2826
1!
#2828
0!
#2830
1!
#2832
0!
#2834
1!
#2836
0!
#2838
1!
1*
0>
#2840
0!
#2842
1!
0*
1>
#2844
0!
#2846
1!
#2848
0!
#2850
1!
#2852
0!
#2854
1!
#2856
0!
#2858
1!
#2860
0!
#2862
1!
1*
0>
#2864
0!
#2866
1!
0*
1>
#2868
0!
#2870
1!
#2872
0!
#2874
1!
#2876
0!
#2878
1!
#2880
0!
#2882
1!
#2884
0!
#2886
1!
1*
0>
#2888
0!
#2890
1!
1%
0*
0=
1>
#2892
0!
#2894
1!
#2896
0!
#2898
1!
#2900
0!
#2902
1!
#2904
0!
#2906
1!
#2908
0!
#2910
1!
1*
0>
1I
1D
04
0C
16
#2912
0!
#2914
1!
0%
0*
1;
0P
0:
1O
1=
1>
1E
0K
0I
0D
1C
1/
1.
0-
06
0C
16
#2916
0!
#2918
1!
#2920
0!
#2922
1!
#2924
0!
#2926
1!
#2928
0!
#2930
1!
#2932
0!
#2934
1!
1*
0>
0J
1C
14
06
#2936
0!
#2938
1!
0*
0;
1P
1:
0O
1>
1J
1K
0E
0C
04
14
16
1-
0/
0.
1C
06
#2940
0!
#2942
1!
#2944
0!
#2946
1!
#2948
0!
#2950
1!
#2952
0!
#2954
1!
#2956
0!
#2958
1!
1*
0>
#2960
0!
